<?xml version="1.0" encoding="utf-8"?>
<!-- Generator: Adobe Illustrator 15.0.0, SVG Export Plug-In . SVG Version: 6.00 Build 0)  -->
<!DOCTYPE svg PUBLIC "-//W3C//DTD SVG 1.1//EN" "http://www.w3.org/Graphics/SVG/1.1/DTD/svg11.dtd">
<svg version="1.1" id="Layer_1" xmlns="http://www.w3.org/2000/svg" xmlns:xlink="http://www.w3.org/1999/xlink" x="0px" y="0px"
	 width="20px" height="15px" viewBox="-2.5 0 20 15" enable-background="new -2.5 0 20 15" xml:space="preserve">
<path fill="#3868B2" d="M15.5,0h-16c-1.104,0-2,0.896-2,2v8c0,1.104,0.896,2,2,2h6v3l3.921-3H15.5c1.104,0,2-0.896,2-2V2
	C17.5,0.896,16.604,0,15.5,0z"/>
</svg>
