<?xml version="1.0" encoding="utf-8"?>
<!-- Generator: Adobe Illustrator 15.0.0, SVG Export Plug-In  -->
<!DOCTYPE svg PUBLIC "-//W3C//DTD SVG 1.1//EN" "http://www.w3.org/Graphics/SVG/1.1/DTD/svg11.dtd" [
	<!ENTITY ns_flows "http://ns.adobe.com/Flows/1.0/">
]>
<svg version="1.1"
	 xmlns="http://www.w3.org/2000/svg" xmlns:xlink="http://www.w3.org/1999/xlink" xmlns:a="http://ns.adobe.com/AdobeSVGViewerExtensions/3.0/"
	 x="0px" y="0px" width="22px" height="17px" viewBox="-0.131 -1.773 22 17"
	 overflow="visible" enable-background="new -0.131 -1.773 22 17" xml:space="preserve">
<defs>
</defs>
<polygon fill="#1662AF" points="13.152,11.96 21.738,2.329 19.125,0 10.869,9.262 2.612,0 0,2.329 8.608,11.985 8.612,11.975 
	10.875,14.461 13.152,11.959 "/>
</svg>
