<?xml version="1.0" encoding="utf-8"?>
<!-- Generator: Adobe Illustrator 15.0.0, SVG Export Plug-In  -->
<!DOCTYPE svg PUBLIC "-//W3C//DTD SVG 1.1//EN" "http://www.w3.org/Graphics/SVG/1.1/DTD/svg11.dtd" [
	<!ENTITY ns_flows "http://ns.adobe.com/Flows/1.0/">
]>
<svg version="1.1"
	 xmlns="http://www.w3.org/2000/svg" xmlns:xlink="http://www.w3.org/1999/xlink" xmlns:a="http://ns.adobe.com/AdobeSVGViewerExtensions/3.0/"
	 x="0px" y="0px" width="21px" height="18px" viewBox="0.037 0 21 18" overflow="visible" enable-background="new 0.037 0 21 18"
	 xml:space="preserve">
<defs>
</defs>
<polygon fill="#1662AF" points="21.028,9.498 10.343,0 0,9.498 4.037,9.498 4.056,17.939 9.009,17.939 8.99,11.375 12.037,11.375 
	12.056,17.939 17.009,17.939 16.99,9.498 "/>
</svg>
