<?xml version="1.0" encoding="utf-8"?>
<!-- Generator: Adobe Illustrator 15.0.0, SVG Export Plug-In  -->
<!DOCTYPE svg PUBLIC "-//W3C//DTD SVG 1.1//EN" "http://www.w3.org/Graphics/SVG/1.1/DTD/svg11.dtd" [
	<!ENTITY ns_flows "http://ns.adobe.com/Flows/1.0/">
]>
<svg version="1.1"
	 xmlns="http://www.w3.org/2000/svg" xmlns:xlink="http://www.w3.org/1999/xlink" xmlns:a="http://ns.adobe.com/AdobeSVGViewerExtensions/3.0/"
	 x="0px" y="0px" width="12px" height="16px" viewBox="0 0 12 16" overflow="visible" enable-background="new 0 0 12 16"
	 xml:space="preserve">
<defs>
</defs>
<rect x="4.969" y="1.031" fill="none" width="2.031" height="0.969"/>
<path fill="#1463B0" d="M11.969,2H8.781V0H8.156H7.875H7H4.969H3.875H3.188v2H0.031v2.125h11.938V2z M7,2H4.969V1.031H7V2z"/>
<polygon fill="#1463B0" points="10.967,5 9.031,5 8.873,5 8.873,13.017 7.007,13.017 7.007,4.996 4.991,4.996 4.991,13.017 
	3.203,13.017 3.203,5 2.969,5 1.109,5 0,5 0,5.968 1.109,5.968 1.109,13.969 1.989,13.969 1.989,14.969 9.988,14.969 9.988,13.969 
	10.967,13.969 10.967,5.968 12,5.968 12,5 "/>
</svg>
