<?xml version="1.0" encoding="utf-8"?>
<!-- Generator: Adobe Illustrator 15.0.0, SVG Export Plug-In  -->
<!DOCTYPE svg PUBLIC "-//W3C//DTD SVG 1.1//EN" "http://www.w3.org/Graphics/SVG/1.1/DTD/svg11.dtd" [
	<!ENTITY ns_flows "http://ns.adobe.com/Flows/1.0/">
]>
<svg version="1.1"
	 xmlns="http://www.w3.org/2000/svg" xmlns:xlink="http://www.w3.org/1999/xlink" xmlns:a="http://ns.adobe.com/AdobeSVGViewerExtensions/3.0/"
	 x="0px" y="0px" width="14px" height="72px" viewBox="0 -11 14 72" overflow="visible" enable-background="new 0 -11 14 72"
	 xml:space="preserve">
<defs>
</defs>
<polygon fill="#206CB5" points="6.817,0 0,6.706 14,6.706 "/>
<polygon fill="#206CB5" points="1.339,14 5.502,14 5.502,9.963 8.684,9.963 8.684,14 12.66,14 12.66,7.938 1.339,7.938 "/>
<polygon fill="#FFFFFF" points="6.817,36.001 0,42.707 14,42.707 "/>
<polygon fill="#FFFFFF" points="1.339,50.002 5.502,50.002 5.502,45.964 8.684,45.964 8.684,50.002 12.66,50.002 12.66,43.939 
	1.339,43.939 "/>
</svg>
