<?xml version="1.0" encoding="utf-8"?>
<!-- Generator: Adobe Illustrator 15.0.0, SVG Export Plug-In  -->
<!DOCTYPE svg PUBLIC "-//W3C//DTD SVG 1.1//EN" "http://www.w3.org/Graphics/SVG/1.1/DTD/svg11.dtd" [
	<!ENTITY ns_flows "http://ns.adobe.com/Flows/1.0/">
]>
<svg version="1.1"
	 xmlns="http://www.w3.org/2000/svg" xmlns:xlink="http://www.w3.org/1999/xlink" xmlns:a="http://ns.adobe.com/AdobeSVGViewerExtensions/3.0/"
	 x="0px" y="0px" width="6px" height="72px" viewBox="0 -13.267 6 72" overflow="visible" enable-background="new 0 -13.267 6 72"
	 xml:space="preserve">
<defs>
</defs>
<polygon fill="#206CB5" points="0,0 0,9.467 6,4.733 "/>
<g>
	<g>
		<polygon fill="#FFFFFF" points="0,36.001 0,45.468 6,40.733 		"/>
	</g>
</g>
</svg>
